<?xml version="1.0" encoding="UTF-8" standalone="yes"?>
<svg xmlns="http://www.w3.org/2000/svg" viewBox="0 0 50 50" width="50" height="50" fill="#000000">
  <path d="M25,2.001c-12.682,0-23,10.317-23,23s10.318,23,23,23s23-10.317,23-23S37.682,2.001,25,2.001z M35.22,31.911 C34.336,34.314,32,37,32,37s1-3,1-5c-0.038-5.906-3.781-11.189-13-15c6.458,3.844,9.326,9.784,9,15 c-0.109,1.747-0.114,2.974-1,4.892c-0.338,0.053-0.671,0.089-1,0.108c-6.339,0.368-11-5.321-11-11.722V13 C32.124,13.596,38.342,23.274,35.22,31.911z"/>
</svg>
